C:\Workspace\digital-lights\Team Schedule\repositories\btp-test\quota.service\src\main\java\ts\swcc\quota\service\SAMLAssertionGenerator.java
C:\Workspace\digital-lights\Team Schedule\repositories\btp-test\quota.service\src\main\java\ts\swcc\quota\service\ServletInitializer.java
C:\Workspace\digital-lights\Team Schedule\repositories\btp-test\quota.service\src\main\java\pojo\SFToken.java
C:\Workspace\digital-lights\Team Schedule\repositories\btp-test\quota.service\src\main\java\ts\swcc\quota\service\ApplicationProperties.java
C:\Workspace\digital-lights\Team Schedule\repositories\btp-test\quota.service\src\main\java\ts\swcc\quota\service\Application.java
C:\Workspace\digital-lights\Team Schedule\repositories\btp-test\quota.service\src\main\java\ts\swcc\quota\service\ServiceThread.java
C:\Workspace\digital-lights\Team Schedule\repositories\btp-test\quota.service\src\main\java\pojo\ToDoEntry.java
C:\Workspace\digital-lights\Team Schedule\repositories\btp-test\quota.service\src\main\java\ts\swcc\quota\service\TriggerController.java
C:\Workspace\digital-lights\Team Schedule\repositories\btp-test\quota.service\src\main\java\ts\swcc\quota\service\Utils.java
